{
  "extends": "../../tslint.json",
  "rules": {
    "directive-selector": [false, "attribute", "app", "formly", "camelCase"],
    "component-selector": [false, "element", "app", "formly", "kebab-case"]
  }
}
